<svg xmlns="http://www.w3.org/2000/svg" width="17.5" height="25" viewBox="0 0 17.5 25">
  <path id="ic_pin_drop_24px" d="M21.25,9.5a7.5,7.5,0,0,0-15,0c0,5.625,7.5,13.75,7.5,13.75S21.25,15.125,21.25,9.5Zm-10,0a2.5,2.5,0,1,1,2.5,2.5A2.507,2.507,0,0,1,11.25,9.5ZM5,24.5V27H22.5V24.5Z" transform="translate(-5 -2)" fill="#dedede"/>
</svg>
