<svg xmlns="http://www.w3.org/2000/svg" width="17.5" height="17.5" viewBox="0 0 17.5 17.5">
  <path id="ic_edit_24px" d="M3,16.852V20.5H6.645L17.4,9.746,13.751,6.1ZM20.216,6.927a.968.968,0,0,0,0-1.371L17.941,3.282a.968.968,0,0,0-1.371,0L14.791,5.061l3.645,3.645Z" transform="translate(-3 -2.997)" fill="#fff"/>
</svg>
